%YAML 1.1
%TAG !u! tag:unity3d.com,2011:
--- !u!1045 &1
EditorBuildSettings:
  m_ObjectHideFlags: 0
  serializedVersion: 2
  m_Scenes:
  - enabled: 0
    path: Assets/Scenes/Menu_Inicial.unity
    guid: 2cda990e2423bbf4892e6590ba056729
  - enabled: 0
    path: Assets/Scenes/Menu_Opciones.unity
    guid: bb4223d404a8043498d05a6620483cea
  - enabled: 1
    path: Assets/Scenes/StartScene.unity
    guid: 641fcba85619f7242b863d75bcbfef55
  - enabled: 1
    path: Assets/Scenes/1-NivelTutorial.unity
    guid: b037ae75d6d300840b7b8df0d0b476df
  - enabled: 1
    path: Assets/Scenes/2-Nivel.unity
    guid: 705e8cb0ef2bdc14d8c91705d875fa87
  - enabled: 1
    path: Assets/Scenes/3-Nivel.unity
    guid: 7c54cb8baa6bedd4ebf48ad57101a3a5
  - enabled: 1
    path: Assets/Scenes/GameOver.unity
    guid: c3a352eaf8fe2724cb3aa9094fb24f8d
  - enabled: 1
    path: Assets/Scenes/ControlsScene.unity
    guid: 1c5d7a1736f33554b8431f5f9499504d
  - enabled: 1
    path: Assets/Scenes/SelectLevel.unity
    guid: bc0c9845a9070dc45ba5a3de4b5906ab
  - enabled: 1
    path: Assets/Scenes/Final.unity
    guid: 48747f1e0cd972c4ebce8f517d9cd9f9
  m_configObjects: {}
